%YAML 1.1
%TAG !u! tag:unity3d.com,2011:
--- !u!114 &11400000
MonoBehaviour:
  m_ObjectHideFlags: 0
  m_CorrespondingSourceObject: {fileID: 0}
  m_PrefabInstance: {fileID: 0}
  m_PrefabAsset: {fileID: 0}
  m_GameObject: {fileID: 0}
  m_Enabled: 1
  m_EditorHideFlags: 0
  m_Script: {fileID: 11500000, guid: 20588b4b59f45414786d10d3d32a01b0, type: 3}
  m_Name: RedSprite
  m_EditorClassIdentifier: 
  Sprite: {fileID: -6230204922268317390, guid: 4ca9889e33d843e42847b9055a2ac46b, type: 3}
  Color: 1
