%YAML 1.1
%TAG !u! tag:unity3d.com,2011:
--- !u!114 &11400000
MonoBehaviour:
  m_ObjectHideFlags: 0
  m_CorrespondingSourceObject: {fileID: 0}
  m_PrefabInstance: {fileID: 0}
  m_PrefabAsset: {fileID: 0}
  m_GameObject: {fileID: 0}
  m_Enabled: 1
  m_EditorHideFlags: 0
  m_Script: {fileID: 11500000, guid: 9693867a29a1e324eaa6bfd4705391d0, type: 3}
  m_Name: Blob
  m_EditorClassIdentifier: 
  Name: Blob
  Health: 50
  MaxHealthPoint: 50
  _speed: 3
  _counterLead: 3
  _damage: 1
